"Название","article","availability","mainImage"
,"AI-2926","В наличии","/images/products/product-joehrpv3/product-joehrqco.jpg"
,"AI-2927","В наличии","/images/products/product-joehrqeb/product-joehrqol.jpg"
,"AI-2928","В наличии","/images/products/product-joehrqq3/product-joehrr3b.jpg"
,"AI-2929","В наличии","/images/products/product-joehrr44/product-joehrrgp.jpg"
,"AI-2930","В наличии","/images/products/product-joehrrhf/product-joehrrvo.jpg"
,"AI-2931","В наличии","/images/products/product-joehrrwf/product-joehrs5l.jpg"
,"AI-2955","В наличии","/images/products/product-joehrs68/product-joehrsh9.jpg"
,"AI-2960","В наличии","/images/products/product-joehrshy/product-joehrswt.jpg"